2022-Jun-19-16:28:57,ETL Job Started
2022-Jun-19-16:29:00,Extract phase Started
2022-Jun-19-16:29:50,Extract phase Ended
2022-Jun-19-16:29:51,Transform phase Started
2022-Jun-19-16:29:57,Transform phase Ended
2022-Jun-19-16:29:58,Load phase Started
2022-Jun-19-16:30:00,Load phase Ended
2022-Jun-19-16:30:01,ETL Job Ended
